SEQUENTIAL
Alice0;17423334444;1000;2;3;4;5;0;1;50000
Bill1;17423334444;1000;9;2;0;9;4;1;5000
Bob2;17423334444;1000;8;5;1;9;3;2;5000
John3;17423334444;1000;3;7;9;4;0;6;5000
Mallory4;17423334444;1000;4;0;9;6;8;3;5000
Peter5;17423334444;1000;6;4;7;9;2;7;5000
Sarah6;17423334444;1000;8;9;1;5;7;2;5000
Alice7;17423334444;1000;1;9;5;3;7;6;5000
Bill8;17423334444;1000;9;2;0;3;6;0;5000
Bob9;17423334444;1000;1;2;0;4;6;9;5000
John10;17423334444;1000;9;7;0;6;3;1;5000
Mallory11;17423334444;1000;1;5;2;9;7;0;5000
Peter12;17423334444;1000;4;2;5;9;4;1;5000
Sarah13;17423334444;1000;6;8;9;7;0;5;5000
Alice14;17423334444;1000;7;2;9;4;1;5;5000
Bill15;17423334444;1000;2;8;9;1;0;4;5000
Bob16;17423334444;1000;1;9;8;2;6;5;5000
John17;17423334444;1000;3;1;2;9;1;7;5000
Mallory18;17423334444;1000;0;3;1;7;4;0;5000
Peter19;17423334444;1000;4;9;2;6;3;5;5000
Sarah20;17423334444;1000;0;4;5;8;7;2;5000
Alice21;17423334444;1000;8;3;4;6;7;9;5000
Bill22;17423334444;1000;4;1;2;4;5;1;5000
Bob23;17423334444;1000;9;2;8;6;5;0;5000
John24;17423334444;1000;5;2;1;7;9;4;5000
Mallory25;17423334444;1000;1;9;3;5;6;7;5000
Peter26;17423334444;1000;4;0;3;4;6;0;5000
Sarah27;17423334444;1000;0;4;1;8;0;3;5000
Alice28;17423334444;1000;5;2;3;7;2;5;5000
Bill29;17423334444;1000;3;7;6;8;9;0;5000
Bob30;17423334444;1000;4;3;9;4;7;8;5000
John31;17423334444;1000;4;6;8;0;3;1;5000
Mallory32;17423334444;1000;1;9;8;3;6;0;5000
Peter33;17423334444;1000;5;6;8;9;5;8;5000
Sarah34;17423334444;1000;7;6;5;0;2;6;5000
Alice35;17423334444;1000;4;8;3;4;0;8;5000
Bill36;17423334444;1000;1;2;5;4;7;1;5000
Bob37;17423334444;1000;6;3;7;8;9;0;5000
John38;17423334444;1000;1;5;0;3;2;5;5000
Mallory39;17423334444;1000;5;0;6;2;0;3;5000
Peter40;17423334444;1000;4;6;0;3;2;7;5000
Sarah41;17423334444;1000;8;3;7;2;9;7;5000
Alice42;17423334444;1000;0;5;2;1;8;2;5000
Bill43;17423334444;1000;0;6;7;2;8;3;5000
Bob44;17423334444;1000;2;4;3;7;6;2;5000
John45;17423334444;1000;5;6;1;2;4;6;5000
Mallory46;17423334444;1000;1;9;3;0;9;6;5000
Peter47;17423334444;1000;2;0;7;3;2;4;5000
Sarah48;17423334444;1000;6;5;1;0;4;2;5000
Alice49;17423334444;1000;2;3;6;4;8;0;5000
Bill50;17423334444;1000;2;7;6;3;9;8;5000
Bob51;17423334444;1000;1;8;5;9;4;5;5000
John52;17423334444;1000;1;2;8;4;5;3;5000
Mallory53;17423334444;1000;8;7;2;5;7;3;5000
Peter54;17423334444;1000;7;3;6;1;9;4;5000
Sarah55;17423334444;1000;9;7;0;6;2;8;5000
Alice56;17423334444;1000;1;3;6;0;7;1;5000
Bill57;17423334444;1000;5;4;3;2;0;4;5000
Bob58;17423334444;1000;9;7;6;3;7;2;5000
John59;17423334444;1000;2;1;4;8;0;6;5000
Mallory60;17423334444;1000;5;4;2;7;5;1;5000
Peter61;17423334444;1000;6;4;0;5;9;6;5000
Sarah62;17423334444;1000;0;1;7;4;6;5;5000
Alice63;17423334444;1000;7;6;4;1;6;2;5000
Bill64;17423334444;1000;1;9;2;4;6;3;5000
Bob65;17423334444;1000;7;9;4;8;7;3;5000
John66;17423334444;1000;1;7;8;6;5;1;5000
Mallory67;17423334444;1000;2;3;7;6;9;0;5000
Peter68;17423334444;1000;8;2;6;8;3;0;5000
Sarah69;17423334444;1000;3;1;2;4;1;2;5000
Alice70;17423334444;1000;2;1;0;3;9;4;5000
Bill71;17423334444;1000;9;2;1;8;7;6;5000
Bob72;17423334444;1000;2;7;0;3;4;7;5000
John73;17423334444;1000;5;8;7;4;1;7;5000
Mallory74;17423334444;1000;3;7;8;4;2;8;5000
Peter75;17423334444;1000;5;2;1;8;9;6;5000
Sarah76;17423334444;1000;6;3;8;2;0;8;5000
Alice77;17423334444;1000;0;3;7;9;0;3;5000
Bill78;17423334444;1000;4;8;1;6;7;3;5000
Bob79;17423334444;1000;5;7;1;8;3;0;5000
John80;17423334444;1000;6;0;3;1;4;8;5000
Mallory81;17423334444;1000;4;9;3;6;4;5;5000
Peter82;17423334444;1000;3;0;5;1;0;8;5000
Sarah83;17423334444;1000;7;0;2;7;6;9;5000
Alice84;17423334444;1000;8;0;7;6;3;9;5000
Bill85;17423334444;1000;3;5;0;4;5;2;5000
Bob86;17423334444;1000;3;8;0;6;9;1;5000
John87;17423334444;1000;6;8;0;7;3;2;5000
Mallory88;17423334444;1000;2;3;0;8;2;7;5000
Peter89;17423334444;1000;5;4;9;0;2;1;5000
Sarah90;17423334444;1000;3;6;1;4;7;9;5000
Alice91;17423334444;1000;2;5;8;4;2;0;5000
Bill92;17423334444;1000;7;3;1;8;3;7;5000
Bob93;17423334444;1000;9;5;2;8;1;9;5000
John94;17423334444;1000;7;6;9;0;1;3;5000
Mallory95;17423334444;1000;5;9;4;6;1;3;5000
Peter96;17423334444;1000;9;3;0;9;2;8;5000
Sarah97;17423334444;1000;0;5;1;7;9;3;5000
Alice98;17423334444;1000;6;7;3;6;8;4;5000
Bill99;17423334444;1000;0;2;3;9;5;2;5000
Bob100;17423334444;1000;2;3;4;5;0;1;5000
John101;17423334444;1000;9;2;0;9;4;1;5000
Mallory102;17423334444;1000;8;5;1;9;3;2;5000
Peter103;17423334444;1000;3;7;9;4;0;6;5000
Sarah104;17423334444;1000;4;0;9;6;8;3;5000
Alice105;17423334444;1000;6;4;7;9;2;7;5000
Bill106;17423334444;1000;8;9;1;5;7;2;5000
Bob107;17423334444;1000;1;9;5;3;7;6;5000
John108;17423334444;1000;9;2;0;3;6;0;5000
Mallory109;17423334444;1000;1;2;0;4;6;9;5000
Peter110;17423334444;1000;9;7;0;6;3;1;5000
Sarah111;17423334444;1000;1;5;2;9;7;0;5000
Alice112;17423334444;1000;4;2;5;9;4;1;5000
Bill113;17423334444;1000;6;8;9;7;0;5;5000
Bob114;17423334444;1000;7;2;9;4;1;5;5000
John115;17423334444;1000;2;8;9;1;0;4;5000
Mallory116;17423334444;1000;1;9;8;2;6;5;5000
Peter117;17423334444;1000;3;1;2;9;1;7;5000
Sarah118;17423334444;1000;0;3;1;7;4;0;5000
Alice119;17423334444;1000;4;9;2;6;3;5;5000
Bill120;17423334444;1000;0;4;5;8;7;2;5000
Bob121;17423334444;1000;8;3;4;6;7;9;5000
John122;17423334444;1000;4;1;2;4;5;1;5000
Mallory123;17423334444;1000;9;2;8;6;5;0;5000
Peter124;17423334444;1000;5;2;1;7;9;4;5000
Sarah125;17423334444;1000;1;9;3;5;6;7;5000
Alice126;17423334444;1000;4;0;3;4;6;0;5000
Bill127;17423334444;1000;0;4;1;8;0;3;5000
Bob128;17423334444;1000;5;2;3;7;2;5;5000
John129;17423334444;1000;3;7;6;8;9;0;5000
Mallory130;17423334444;1000;4;3;9;4;7;8;5000
Peter131;17423334444;1000;4;6;8;0;3;1;5000
Sarah132;17423334444;1000;1;9;8;3;6;0;5000
Alice133;17423334444;1000;5;6;8;9;5;8;5000
Bill134;17423334444;1000;7;6;5;0;2;6;5000
Bob135;17423334444;1000;4;8;3;4;0;8;5000
John136;17423334444;1000;1;2;5;4;7;1;5000
Mallory137;17423334444;1000;6;3;7;8;9;0;5000
Peter138;17423334444;1000;1;5;0;3;2;5;5000
Sarah139;17423334444;1000;5;0;6;2;0;3;5000
Alice140;17423334444;1000;4;6;0;3;2;7;5000
Bill141;17423334444;1000;8;3;7;2;9;7;5000
Bob142;17423334444;1000;0;5;2;1;8;2;5000
John143;17423334444;1000;0;6;7;2;8;3;5000
Mallory144;17423334444;1000;2;4;3;7;6;2;5000
Peter145;17423334444;1000;5;6;1;2;4;6;5000
Sarah146;17423334444;1000;1;9;3;0;9;6;5000
Alice147;17423334444;1000;2;0;7;3;2;4;5000
Bill148;17423334444;1000;6;5;1;0;4;2;5000
Bob149;17423334444;1000;2;3;6;4;8;0;5000
John150;17423334444;1000;2;7;6;3;9;8;5000
Mallory151;17423334444;1000;1;8;5;9;4;5;5000
Peter152;17423334444;1000;1;2;8;4;5;3;5000
Sarah153;17423334444;1000;8;7;2;5;7;3;5000
Alice154;17423334444;1000;7;3;6;1;9;4;5000
Bill155;17423334444;1000;9;7;0;6;2;8;5000
Bob156;17423334444;1000;1;3;6;0;7;1;5000
John157;17423334444;1000;5;4;3;2;0;4;5000
Mallory158;17423334444;1000;9;7;6;3;7;2;5000
Peter159;17423334444;1000;2;1;4;8;0;6;5000
Sarah160;17423334444;1000;5;4;2;7;5;1;5000
Alice161;17423334444;1000;6;4;0;5;9;6;5000
Bill162;17423334444;1000;0;1;7;4;6;5;5000
Bob163;17423334444;1000;7;6;4;1;6;2;5000
John164;17423334444;1000;1;9;2;4;6;3;5000
Mallory165;17423334444;1000;7;9;4;8;7;3;5000
Peter166;17423334444;1000;1;7;8;6;5;1;5000
Sarah167;17423334444;1000;2;3;7;6;9;0;5000
Alice168;17423334444;1000;8;2;6;8;3;0;5000
Bill169;17423334444;1000;3;1;2;4;1;2;5000
Bob170;17423334444;1000;2;1;0;3;9;4;5000
John171;17423334444;1000;9;2;1;8;7;6;5000
Mallory172;17423334444;1000;2;7;0;3;4;7;5000
Peter173;17423334444;1000;5;8;7;4;1;7;5000
Sarah174;17423334444;1000;3;7;8;4;2;8;5000
Alice175;17423334444;1000;5;2;1;8;9;6;5000
Bill176;17423334444;1000;6;3;8;2;0;8;5000
Bob177;17423334444;1000;0;3;7;9;0;3;5000
John178;17423334444;1000;4;8;1;6;7;3;5000
Mallory179;17423334444;1000;5;7;1;8;3;0;5000
Peter180;17423334444;1000;6;0;3;1;4;8;5000
Sarah181;17423334444;1000;4;9;3;6;4;5;5000
Alice182;17423334444;1000;3;0;5;1;0;8;5000
Bill183;17423334444;1000;7;0;2;7;6;9;5000
Bob184;17423334444;1000;8;0;7;6;3;9;5000
John185;17423334444;1000;3;5;0;4;5;2;5000
Mallory186;17423334444;1000;3;8;0;6;9;1;5000
Peter187;17423334444;1000;6;8;0;7;3;2;5000
Sarah188;17423334444;1000;2;3;0;8;2;7;5000
Alice189;17423334444;1000;5;4;9;0;2;1;5000
Bill190;17423334444;1000;3;6;1;4;7;9;5000
Bob191;17423334444;1000;2;5;8;4;2;0;5000
John192;17423334444;1000;7;3;1;8;3;7;5000
Mallory193;17423334444;1000;9;5;2;8;1;9;5000
Peter194;17423334444;1000;7;6;9;0;1;3;5000
Sarah195;17423334444;1000;5;9;4;6;1;3;5000
Alice196;17423334444;1000;9;3;0;9;2;8;5000
Bill197;17423334444;1000;0;5;1;7;9;3;5000
Bob198;17423334444;1000;6;7;3;6;8;4;5000
John199;17423334444;1000;0;2;3;9;5;2;5000
Mallory200;17423334444;1000;2;3;4;5;0;1;25000
Peter201;17423334444;1000;9;2;0;9;4;1;5000
Sarah202;17423334444;1000;8;5;1;9;3;2;5000
Alice203;17423334444;1000;3;7;9;4;0;6;5000
Bill204;17423334444;1000;4;0;9;6;8;3;5000
Bob205;17423334444;1000;6;4;7;9;2;7;5000
John206;17423334444;1000;8;9;1;5;7;2;5000
Mallory207;17423334444;1000;1;9;5;3;7;6;5000
Peter208;17423334444;1000;9;2;0;3;6;0;5000
Sarah209;17423334444;1000;1;2;0;4;6;9;5000
Alice210;17423334444;1000;9;7;0;6;3;1;5000
Bill211;17423334444;1000;1;5;2;9;7;0;5000
Bob212;17423334444;1000;4;2;5;9;4;1;5000
John213;17423334444;1000;6;8;9;7;0;5;5000
Mallory214;17423334444;1000;7;2;9;4;1;5;5000
Peter215;17423334444;1000;2;8;9;1;0;4;5000
Sarah216;17423334444;1000;1;9;8;2;6;5;5000
Alice217;17423334444;1000;3;1;2;9;1;7;5000
Bill218;17423334444;1000;0;3;1;7;4;0;5000
Bob219;17423334444;1000;4;9;2;6;3;5;5000
John220;17423334444;1000;0;4;5;8;7;2;5000
Mallory221;17423334444;1000;8;3;4;6;7;9;5000
Peter222;17423334444;1000;4;1;2;4;5;1;5000
Sarah223;17423334444;1000;9;2;8;6;5;0;5000
Alice224;17423334444;1000;5;2;1;7;9;4;5000
Bill225;17423334444;1000;1;9;3;5;6;7;5000
Bob226;17423334444;1000;4;0;3;4;6;0;5000
John227;17423334444;1000;0;4;1;8;0;3;5000
Mallory228;17423334444;1000;5;2;3;7;2;5;5000
Peter229;17423334444;1000;3;7;6;8;9;0;5000
Sarah230;17423334444;1000;4;3;9;4;7;8;5000
Alice231;17423334444;1000;4;6;8;0;3;1;5000
Bill232;17423334444;1000;1;9;8;3;6;0;5000
Bob233;17423334444;1000;5;6;8;9;5;8;5000
John234;17423334444;1000;7;6;5;0;2;6;5000
Mallory235;17423334444;1000;4;8;3;4;0;8;5000
Peter236;17423334444;1000;1;2;5;4;7;1;5000
Sarah237;17423334444;1000;6;3;7;8;9;0;5000
Alice238;17423334444;1000;1;5;0;3;2;5;5000
Bill239;17423334444;1000;5;0;6;2;0;3;5000
Bob240;17423334444;1000;4;6;0;3;2;7;5000
John241;17423334444;1000;8;3;7;2;9;7;5000
Mallory242;17423334444;1000;0;5;2;1;8;2;5000
Peter243;17423334444;1000;0;6;7;2;8;3;5000
Sarah244;17423334444;1000;2;4;3;7;6;2;5000
Alice245;17423334444;1000;5;6;1;2;4;6;5000
Bill246;17423334444;1000;1;9;3;0;9;6;5000
Bob247;17423334444;1000;2;0;7;3;2;4;5000
John248;17423334444;1000;6;5;1;0;4;2;5000
Mallory249;17423334444;1000;2;3;6;4;8;0;5000
Peter250;17423334444;1000;2;7;6;3;9;8;5000
Sarah251;17423334444;1000;1;8;5;9;4;5;5000
Alice252;17423334444;1000;1;2;8;4;5;3;5000
Bill253;17423334444;1000;8;7;2;5;7;3;5000
Bob254;17423334444;1000;7;3;6;1;9;4;5000
John255;17423334444;1000;9;7;0;6;2;8;5000
Mallory256;17423334444;1000;1;3;6;0;7;1;5000
Peter257;17423334444;1000;5;4;3;2;0;4;5000
Sarah258;17423334444;1000;9;7;6;3;7;2;5000
Alice259;17423334444;1000;2;1;4;8;0;6;5000
Bill260;17423334444;1000;5;4;2;7;5;1;5000
Bob261;17423334444;1000;6;4;0;5;9;6;5000
John262;17423334444;1000;0;1;7;4;6;5;5000
Mallory263;17423334444;1000;7;6;4;1;6;2;5000
Peter264;17423334444;1000;1;9;2;4;6;3;5000
Sarah265;17423334444;1000;7;9;4;8;7;3;5000
Alice266;17423334444;1000;1;7;8;6;5;1;5000
Bill267;17423334444;1000;2;3;7;6;9;0;5000
Bob268;17423334444;1000;8;2;6;8;3;0;5000
John269;17423334444;1000;3;1;2;4;1;2;5000
Mallory270;17423334444;1000;2;1;0;3;9;4;5000
Peter271;17423334444;1000;9;2;1;8;7;6;5000
Sarah272;17423334444;1000;2;7;0;3;4;7;5000
Alice273;17423334444;1000;5;8;7;4;1;7;5000
Bill274;17423334444;1000;3;7;8;4;2;8;5000
Bob275;17423334444;1000;5;2;1;8;9;6;5000
John276;17423334444;1000;6;3;8;2;0;8;5000
Mallory277;17423334444;1000;0;3;7;9;0;3;5000
Peter278;17423334444;1000;4;8;1;6;7;3;5000
Sarah279;17423334444;1000;5;7;1;8;3;0;5000
Alice280;17423334444;1000;6;0;3;1;4;8;5000
Bill281;17423334444;1000;4;9;3;6;4;5;5000
Bob282;17423334444;1000;3;0;5;1;0;8;5000
John283;17423334444;1000;7;0;2;7;6;9;5000
Mallory284;17423334444;1000;8;0;7;6;3;9;5000
Peter285;17423334444;1000;3;5;0;4;5;2;5000
Sarah286;17423334444;1000;3;8;0;6;9;1;5000
Alice287;17423334444;1000;6;8;0;7;3;2;5000
Bill288;17423334444;1000;2;3;0;8;2;7;5000
Bob289;17423334444;1000;5;4;9;0;2;1;5000
John290;17423334444;1000;3;6;1;4;7;9;5000
Mallory291;17423334444;1000;2;5;8;4;2;0;5000
Peter292;17423334444;1000;7;3;1;8;3;7;5000
Sarah293;17423334444;1000;9;5;2;8;1;9;5000
Alice294;17423334444;1000;7;6;9;0;1;3;5000
Bill295;17423334444;1000;5;9;4;6;1;3;5000
Bob296;17423334444;1000;9;3;0;9;2;8;5000
John297;17423334444;1000;0;5;1;7;9;3;5000
Mallory298;17423334444;1000;6;7;3;6;8;4;5000
Peter299;17423334444;1000;0;2;3;9;5;2;5000
Sarah300;17423334444;1000;2;3;4;5;0;1;12500
Alice301;17423334444;1000;9;2;0;9;4;1;5000
Bill302;17423334444;1000;8;5;1;9;3;2;5000
Bob303;17423334444;1000;3;7;9;4;0;6;5000
John304;17423334444;1000;4;0;9;6;8;3;5000
Mallory305;17423334444;1000;6;4;7;9;2;7;5000
Peter306;17423334444;1000;8;9;1;5;7;2;5000
Sarah307;17423334444;1000;1;9;5;3;7;6;5000
Alice308;17423334444;1000;9;2;0;3;6;0;5000
Bill309;17423334444;1000;1;2;0;4;6;9;5000
Bob310;17423334444;1000;9;7;0;6;3;1;5000
John311;17423334444;1000;1;5;2;9;7;0;5000
Mallory312;17423334444;1000;4;2;5;9;4;1;5000
Peter313;17423334444;1000;6;8;9;7;0;5;5000
Sarah314;17423334444;1000;7;2;9;4;1;5;5000
Alice315;17423334444;1000;2;8;9;1;0;4;5000
Bill316;17423334444;1000;1;9;8;2;6;5;5000
Bob317;17423334444;1000;3;1;2;9;1;7;5000
John318;17423334444;1000;0;3;1;7;4;0;5000
Mallory319;17423334444;1000;4;9;2;6;3;5;5000
Peter320;17423334444;1000;0;4;5;8;7;2;5000
Sarah321;17423334444;1000;8;3;4;6;7;9;5000
Alice322;17423334444;1000;4;1;2;4;5;1;5000
Bill323;17423334444;1000;9;2;8;6;5;0;5000
Bob324;17423334444;1000;5;2;1;7;9;4;5000
John325;17423334444;1000;1;9;3;5;6;7;5000
Mallory326;17423334444;1000;4;0;3;4;6;0;5000
Peter327;17423334444;1000;0;4;1;8;0;3;5000
Sarah328;17423334444;1000;5;2;3;7;2;5;5000
Alice329;17423334444;1000;3;7;6;8;9;0;5000
Bill330;17423334444;1000;4;3;9;4;7;8;5000
Bob331;17423334444;1000;4;6;8;0;3;1;5000
John332;17423334444;1000;1;9;8;3;6;0;5000
Mallory333;17423334444;1000;5;6;8;9;5;8;5000
Peter334;17423334444;1000;7;6;5;0;2;6;5000
Sarah335;17423334444;1000;4;8;3;4;0;8;5000
Alice336;17423334444;1000;1;2;5;4;7;1;5000
Bill337;17423334444;1000;6;3;7;8;9;0;5000
Bob338;17423334444;1000;1;5;0;3;2;5;5000
John339;17423334444;1000;5;0;6;2;0;3;5000
Mallory340;17423334444;1000;4;6;0;3;2;7;5000
Peter341;17423334444;1000;8;3;7;2;9;7;5000
Sarah342;17423334444;1000;0;5;2;1;8;2;5000
Alice343;17423334444;1000;0;6;7;2;8;3;5000
Bill344;17423334444;1000;2;4;3;7;6;2;5000
Bob345;17423334444;1000;5;6;1;2;4;6;5000
John346;17423334444;1000;1;9;3;0;9;6;5000
Mallory347;17423334444;1000;2;0;7;3;2;4;5000
Peter348;17423334444;1000;6;5;1;0;4;2;5000
Sarah349;17423334444;1000;2;3;6;4;8;0;5000
Alice350;17423334444;1000;2;7;6;3;9;8;5000
Bill351;17423334444;1000;1;8;5;9;4;5;5000
Bob352;17423334444;1000;1;2;8;4;5;3;5000
John353;17423334444;1000;8;7;2;5;7;3;5000
Mallory354;17423334444;1000;7;3;6;1;9;4;5000
Peter355;17423334444;1000;9;7;0;6;2;8;5000
Sarah356;17423334444;1000;1;3;6;0;7;1;5000
Alice357;17423334444;1000;5;4;3;2;0;4;5000
Bill358;17423334444;1000;9;7;6;3;7;2;5000
Bob359;17423334444;1000;2;1;4;8;0;6;5000
John360;17423334444;1000;5;4;2;7;5;1;5000
Mallory361;17423334444;1000;6;4;0;5;9;6;5000
Peter362;17423334444;1000;0;1;7;4;6;5;5000
Sarah363;17423334444;1000;7;6;4;1;6;2;5000
Alice364;17423334444;1000;1;9;2;4;6;3;5000
Bill365;17423334444;1000;7;9;4;8;7;3;5000
Bob366;17423334444;1000;1;7;8;6;5;1;5000
John367;17423334444;1000;2;3;7;6;9;0;5000
Mallory368;17423334444;1000;8;2;6;8;3;0;5000
Peter369;17423334444;1000;3;1;2;4;1;2;5000
Sarah370;17423334444;1000;2;1;0;3;9;4;5000
Alice371;17423334444;1000;9;2;1;8;7;6;5000
Bill372;17423334444;1000;2;7;0;3;4;7;5000
Bob373;17423334444;1000;5;8;7;4;1;7;5000
John374;17423334444;1000;3;7;8;4;2;8;5000
Mallory375;17423334444;1000;5;2;1;8;9;6;5000
Peter376;17423334444;1000;6;3;8;2;0;8;5000
Sarah377;17423334444;1000;0;3;7;9;0;3;5000
Alice378;17423334444;1000;4;8;1;6;7;3;5000
Bill379;17423334444;1000;5;7;1;8;3;0;5000
Bob380;17423334444;1000;6;0;3;1;4;8;5000
John381;17423334444;1000;4;9;3;6;4;5;5000
Mallory382;17423334444;1000;3;0;5;1;0;8;5000
Peter383;17423334444;1000;7;0;2;7;6;9;5000
Sarah384;17423334444;1000;8;0;7;6;3;9;5000
Alice385;17423334444;1000;3;5;0;4;5;2;5000
Bill386;17423334444;1000;3;8;0;6;9;1;5000
Bob387;17423334444;1000;6;8;0;7;3;2;5000
John388;17423334444;1000;2;3;0;8;2;7;5000
Mallory389;17423334444;1000;5;4;9;0;2;1;5000
Peter390;17423334444;1000;3;6;1;4;7;9;5000
Sarah391;17423334444;1000;2;5;8;4;2;0;5000
Alice392;17423334444;1000;7;3;1;8;3;7;5000
Bill393;17423334444;1000;9;5;2;8;1;9;5000
Bob394;17423334444;1000;7;6;9;0;1;3;5000
John395;17423334444;1000;5;9;4;6;1;3;5000
Mallory396;17423334444;1000;9;3;0;9;2;8;5000
Peter397;17423334444;1000;0;5;1;7;9;3;5000
Sarah398;17423334444;1000;6;7;3;6;8;4;5000
Alice399;17423334444;1000;0;2;3;9;5;2;5000
Bill400;17423334444;1000;2;3;4;5;0;1;0
Bob401;17423334444;1000;9;2;0;9;4;1;0
John402;17423334444;1000;8;5;1;9;3;2;0
Mallory403;17423334444;1000;3;7;9;4;0;6;0
Peter404;17423334444;1000;4;0;9;6;8;3;0
Sarah405;17423334444;1000;6;4;7;9;2;7;0
Alice406;17423334444;1000;8;9;1;5;7;2;0
Bill407;17423334444;1000;1;9;5;3;7;6;0
Bob408;17423334444;1000;9;2;0;3;6;0;0
John409;17423334444;1000;1;2;0;4;6;9;0
Mallory410;17423334444;1000;9;7;0;6;3;1;0
Peter411;17423334444;1000;1;5;2;9;7;0;0
Sarah412;17423334444;1000;4;2;5;9;4;1;0
Alice413;17423334444;1000;6;8;9;7;0;5;0
Bill414;17423334444;1000;7;2;9;4;1;5;0
Bob415;17423334444;1000;2;8;9;1;0;4;0
John416;17423334444;1000;1;9;8;2;6;5;0
Mallory417;17423334444;1000;3;1;2;9;1;7;0
Peter418;17423334444;1000;0;3;1;7;4;0;0
Sarah419;17423334444;1000;4;9;2;6;3;5;0
Alice420;17423334444;1000;0;4;5;8;7;2;0
Bill421;17423334444;1000;8;3;4;6;7;9;0
Bob422;17423334444;1000;4;1;2;4;5;1;0
John423;17423334444;1000;9;2;8;6;5;0;0
Mallory424;17423334444;1000;5;2;1;7;9;4;0
Peter425;17423334444;1000;1;9;3;5;6;7;0
Sarah426;17423334444;1000;4;0;3;4;6;0;0
Alice427;17423334444;1000;0;4;1;8;0;3;0
Bill428;17423334444;1000;5;2;3;7;2;5;0
Bob429;17423334444;1000;3;7;6;8;9;0;0
John430;17423334444;1000;4;3;9;4;7;8;0
Mallory431;17423334444;1000;4;6;8;0;3;1;0
Peter432;17423334444;1000;1;9;8;3;6;0;0
Sarah433;17423334444;1000;5;6;8;9;5;8;0
Alice434;17423334444;1000;7;6;5;0;2;6;0
Bill435;17423334444;1000;4;8;3;4;0;8;0
Bob436;17423334444;1000;1;2;5;4;7;1;0
John437;17423334444;1000;6;3;7;8;9;0;0
Mallory438;17423334444;1000;1;5;0;3;2;5;0
Peter439;17423334444;1000;5;0;6;2;0;3;0
Sarah440;17423334444;1000;4;6;0;3;2;7;0
Alice441;17423334444;1000;8;3;7;2;9;7;0
Bill442;17423334444;1000;0;5;2;1;8;2;0
Bob443;17423334444;1000;0;6;7;2;8;3;0
John444;17423334444;1000;2;4;3;7;6;2;0
Mallory445;17423334444;1000;5;6;1;2;4;6;0
Peter446;17423334444;1000;1;9;3;0;9;6;0
Sarah447;17423334444;1000;2;0;7;3;2;4;0
Alice448;17423334444;1000;6;5;1;0;4;2;0
Bill449;17423334444;1000;2;3;6;4;8;0;0
Bob450;17423334444;1000;2;7;6;3;9;8;0
John451;17423334444;1000;1;8;5;9;4;5;0
Mallory452;17423334444;1000;1;2;8;4;5;3;0
Peter453;17423334444;1000;8;7;2;5;7;3;0
Sarah454;17423334444;1000;7;3;6;1;9;4;0
Alice455;17423334444;1000;9;7;0;6;2;8;0
Bill456;17423334444;1000;1;3;6;0;7;1;0
Bob457;17423334444;1000;5;4;3;2;0;4;0
John458;17423334444;1000;9;7;6;3;7;2;0
Mallory459;17423334444;1000;2;1;4;8;0;6;0
Peter460;17423334444;1000;5;4;2;7;5;1;0
Sarah461;17423334444;1000;6;4;0;5;9;6;0
Alice462;17423334444;1000;0;1;7;4;6;5;0
Bill463;17423334444;1000;7;6;4;1;6;2;0
Bob464;17423334444;1000;1;9;2;4;6;3;0
John465;17423334444;1000;7;9;4;8;7;3;0
Mallory466;17423334444;1000;1;7;8;6;5;1;0
Peter467;17423334444;1000;2;3;7;6;9;0;0
Sarah468;17423334444;1000;8;2;6;8;3;0;0
Alice469;17423334444;1000;3;1;2;4;1;2;0
Bill470;17423334444;1000;2;1;0;3;9;4;0
Bob471;17423334444;1000;9;2;1;8;7;6;0
John472;17423334444;1000;2;7;0;3;4;7;0
Mallory473;17423334444;1000;5;8;7;4;1;7;0
Peter474;17423334444;1000;3;7;8;4;2;8;0
Sarah475;17423334444;1000;5;2;1;8;9;6;0
Alice476;17423334444;1000;6;3;8;2;0;8;0
Bill477;17423334444;1000;0;3;7;9;0;3;0
Bob478;17423334444;1000;4;8;1;6;7;3;0
John479;17423334444;1000;5;7;1;8;3;0;0
Mallory480;17423334444;1000;6;0;3;1;4;8;0
Peter481;17423334444;1000;4;9;3;6;4;5;0
Sarah482;17423334444;1000;3;0;5;1;0;8;0
Alice483;17423334444;1000;7;0;2;7;6;9;0
Bill484;17423334444;1000;8;0;7;6;3;9;0
Bob485;17423334444;1000;3;5;0;4;5;2;0
John486;17423334444;1000;3;8;0;6;9;1;0
Mallory487;17423334444;1000;6;8;0;7;3;2;0
Peter488;17423334444;1000;2;3;0;8;2;7;0
Sarah489;17423334444;1000;5;4;9;0;2;1;0
Alice490;17423334444;1000;3;6;1;4;7;9;0
Bill491;17423334444;1000;2;5;8;4;2;0;0
Bob492;17423334444;1000;7;3;1;8;3;7;0
John493;17423334444;1000;9;5;2;8;1;9;0
Mallory494;17423334444;1000;7;6;9;0;1;3;0
Peter495;17423334444;1000;5;9;4;6;1;3;0
Sarah496;17423334444;1000;9;3;0;9;2;8;0
Alice497;17423334444;1000;0;5;1;7;9;3;0
Bill498;17423334444;1000;6;7;3;6;8;4;0
Bob499;17423334444;1000;0;2;3;9;5;2;0
